{
  "412769121818771466": {
    "193053876692189184": "451396462266548245",
    "211005431903027200": "451396485419106314"
  },
  "495734536664252417": {
    "193053876692189184": "495734574106804235",
    "474808756207878154": "496053998629945373",
    "112619643100737536": "496054303073632259",
    "203444551891812352": "496054676622540813",
    "416647338698997770": "496054982223593493"
  },
  "495734482683559960": {
    "298874200934842379": "495734747180302337",
    "226565097785393152": "495734797281525771",
    "249982805503639552": "495734835055427615",
    "328668492586811393": "495734864708894739",
    "383428322027241474": "495734929100111874",
    "250043787227824128": "495734970480984065",
    "203715834995015689": "496047131690401792",
    "172084332389728256": "496047358887591967"
  },
  "496049392420257802": {
    "172084332389728256": "496049534716346369",
    "249982805503639552": "496050226885427220",
    "383428322027241474": "496050497455915008",
    "328668492586811393": "496051228716040205",
    "203715834995015689": "496051457561198602",
    "91300927025205248": "496052027462516756",
    "102791315690901504": "496052311265640450"
  },
  "334629377440481280": {
    "399482830888894464": "498444677398396929"
  }
}